<?xml version="1.0" standalone="no"?>
<!DOCTYPE svg PUBLIC "-//W3C//DTD SVG 1.1//EN"
"http://www.w3.org/Graphics/SVG/1.1/DTD/svg11.dtd">

<svg width="494" height="575" view_box="0 0 494 575"
xmlns="http://www.w3.org/2000/svg"
xmlns:link="http://www.w3.org/1999/xlink">\n\n<desc>Généré par Mocodo 2.3.7 le Mon, 19 Apr 2021 05:27:22</desc>

<rect id="frame" x="0" y="0" width="494" height="575" fill="#ffffbf" stroke="none" stroke-width="0"/>

<!-- Association order_details -->
<line x1="172" y1="490" x2="172" y2="262" stroke="#66bd63" stroke-width="2"/>
<text x="177.0" y="406" fill="#d73027" font-family="Verdana" font-size="12">1,1</text>
<line x1="304" y1="262" x2="172" y2="262" stroke="#66bd63" stroke-width="2"/>
<text x="238" y="279.0" fill="#d73027" font-family="Verdana" font-size="12">1,1</text>
<g id="association-order_details">
	<path d="M 205 237 a 14 14 90 0 1 14 14 V 262 h -94 V 251 a 14 14 90 0 1 14 -14" fill="#a6d96a" stroke="#a6d96a" stroke-width="0"/>
	<path d="M 219 262.0 v 11 a 14 14 90 0 1 -14 14 H 139 a 14 14 90 0 1 -14 -14 V 262.0 H 94" fill="#d9ef8b" stroke="#d9ef8b" stroke-width="0"/>
	<rect x="125" y="237" width="94" height="50" fill="none" rx="14" stroke="#66bd63" stroke-width="2"/>
	<line x1="125" y1="262" x2="219" y2="262" stroke="#66bd63" stroke-width="1"/>
	<text x="132" y="254.7" fill="#000000" font-family="Verdana" font-size="12">order_details</text>
</g>

<!-- Association contains -->
<line x1="172" y1="85" x2="304" y2="85" stroke="#66bd63" stroke-width="2"/>
<text x="217" y="102.0" fill="#d73027" font-family="Verdana" font-size="12">0,N</text>
<line x1="304" y1="262" x2="304" y2="85" stroke="#66bd63" stroke-width="2"/>
<text x="309.0" y="186" fill="#d73027" font-family="Verdana" font-size="12">0,N</text>
<g id="association-contains">
	<path d="M 323 60 a 14 14 90 0 1 14 14 V 85 h -66 V 74 a 14 14 90 0 1 14 -14" fill="#a6d96a" stroke="#a6d96a" stroke-width="0"/>
	<path d="M 337 85.0 v 11 a 14 14 90 0 1 -14 14 H 285 a 14 14 90 0 1 -14 -14 V 85.0 H 66" fill="#d9ef8b" stroke="#d9ef8b" stroke-width="0"/>
	<rect x="271" y="60" width="66" height="50" fill="none" rx="14" stroke="#66bd63" stroke-width="2"/>
	<line x1="271" y1="85" x2="337" y2="85" stroke="#66bd63" stroke-width="1"/>
	<text x="278" y="77.7" fill="#000000" font-family="Verdana" font-size="12">contains</text>
</g>

<!-- Association can -->
<line x1="51" y1="262" x2="51" y2="490" stroke="#66bd63" stroke-width="2"/>
<text x="56.0" y="406" fill="#d73027" font-family="Verdana" font-size="12">0,N</text>
<line x1="172" y1="490" x2="51" y2="490" stroke="#66bd63" stroke-width="2"/>
<text x="85" y="507.0" fill="#d73027" font-family="Verdana" font-size="12">1,1</text>
<g id="association-can">
	<path d="M 55 465 a 14 14 90 0 1 14 14 V 490 h -36 V 479 a 14 14 90 0 1 14 -14" fill="#a6d96a" stroke="#a6d96a" stroke-width="0"/>
	<path d="M 69 490.0 v 11 a 14 14 90 0 1 -14 14 H 47 a 14 14 90 0 1 -14 -14 V 490.0 H 36" fill="#d9ef8b" stroke="#d9ef8b" stroke-width="0"/>
	<rect x="33" y="465" width="36" height="50" fill="none" rx="14" stroke="#66bd63" stroke-width="2"/>
	<line x1="33" y1="490" x2="69" y2="490" stroke="#66bd63" stroke-width="1"/>
	<text x="40" y="482.7" fill="#000000" font-family="Verdana" font-size="12">can</text>
</g>

<!-- Association owns -->
<line x1="51" y1="262" x2="51" y2="85" stroke="#66bd63" stroke-width="2"/>
<text x="56.0" y="127" fill="#d73027" font-family="Verdana" font-size="12">1,1</text>
<line x1="172" y1="85" x2="51" y2="85" stroke="#66bd63" stroke-width="2"/>
<text x="106" y="102.0" fill="#d73027" font-family="Verdana" font-size="12">1,1</text>
<g id="association-owns">
	<path d="M 60 60 a 14 14 90 0 1 14 14 V 85 h -46 V 74 a 14 14 90 0 1 14 -14" fill="#a6d96a" stroke="#a6d96a" stroke-width="0"/>
	<path d="M 74 85.0 v 11 a 14 14 90 0 1 -14 14 H 42 a 14 14 90 0 1 -14 -14 V 85.0 H 46" fill="#d9ef8b" stroke="#d9ef8b" stroke-width="0"/>
	<rect x="28" y="60" width="46" height="50" fill="none" rx="14" stroke="#66bd63" stroke-width="2"/>
	<line x1="28" y1="85" x2="74" y2="85" stroke="#66bd63" stroke-width="1"/>
	<text x="35" y="77.7" fill="#000000" font-family="Verdana" font-size="12">owns</text>
</g>

<!-- Association categorize -->
<line x1="304" y1="262" x2="304" y2="490" stroke="#66bd63" stroke-width="2"/>
<text x="309.0" y="347" fill="#d73027" font-family="Verdana" font-size="12">1,N</text>
<line x1="427" y1="490" x2="304" y2="490" stroke="#66bd63" stroke-width="2"/>
<text x="359" y="507.0" fill="#d73027" font-family="Verdana" font-size="12">0,N</text>
<g id="association-categorize">
	<path d="M 329 465 a 14 14 90 0 1 14 14 V 490 h -78 V 479 a 14 14 90 0 1 14 -14" fill="#a6d96a" stroke="#a6d96a" stroke-width="0"/>
	<path d="M 343 490.0 v 11 a 14 14 90 0 1 -14 14 H 279 a 14 14 90 0 1 -14 -14 V 490.0 H 78" fill="#d9ef8b" stroke="#d9ef8b" stroke-width="0"/>
	<rect x="265" y="465" width="78" height="50" fill="none" rx="14" stroke="#66bd63" stroke-width="2"/>
	<line x1="265" y1="490" x2="343" y2="490" stroke="#66bd63" stroke-width="1"/>
	<text x="272" y="482.7" fill="#000000" font-family="Verdana" font-size="12">categorize</text>
</g>

<!-- Association defines -->
<line x1="304" y1="262" x2="427" y2="262" stroke="#66bd63" stroke-width="2"/>
<text x="349" y="279.0" fill="#d73027" font-family="Verdana" font-size="12">1,N</text>
<line x1="427" y1="85" x2="427" y2="262" stroke="#66bd63" stroke-width="2"/>
<text x="432.0" y="178" fill="#d73027" font-family="Verdana" font-size="12">1,1</text>
<g id="association-defines">
	<path d="M 442 237 a 14 14 90 0 1 14 14 V 262 h -58 V 251 a 14 14 90 0 1 14 -14" fill="#a6d96a" stroke="#a6d96a" stroke-width="0"/>
	<path d="M 456 262.0 v 11 a 14 14 90 0 1 -14 14 H 412 a 14 14 90 0 1 -14 -14 V 262.0 H 58" fill="#d9ef8b" stroke="#d9ef8b" stroke-width="0"/>
	<rect x="398" y="237" width="58" height="50" fill="none" rx="14" stroke="#66bd63" stroke-width="2"/>
	<line x1="398" y1="262" x2="456" y2="262" stroke="#66bd63" stroke-width="1"/>
	<text x="405" y="254.7" fill="#000000" font-family="Verdana" font-size="12">defines</text>
</g>

<!-- Entity users -->
<g id="entity-users">
	<g id="frame-users">
		<rect x="9" y="135" width="84" height="25" fill="#fdae61" stroke="#fdae61" stroke-width="0"/>
		<rect x="9" y="160.0" width="84" height="229" fill="#fee08b" stroke="#fee08b" stroke-width="0"/>
		<rect x="9" y="135" width="84" height="254" fill="none" stroke="#f46d43" stroke-width="2"/>
		<line x1="9" y1="160" x2="93" y2="160" stroke="#f46d43" stroke-width="1"/>
	</g>
	<text x="34" y="152.7" fill="#000000" font-family="Verdana" font-size="12">users</text>
	<text x="14" y="177.7" fill="#000000" font-family="Verdana" font-size="12">user_id</text>
	<line x1="14" y1="180" x2="60" y2="180" stroke="#000000" stroke-width="1"/>
	<text x="14" y="194.7" fill="#000000" font-family="Verdana" font-size="12">first_name</text>
	<text x="14" y="211.7" fill="#000000" font-family="Verdana" font-size="12">last_name</text>
	<text x="14" y="228.7" fill="#000000" font-family="Verdana" font-size="12">age</text>
	<text x="14" y="245.7" fill="#000000" font-family="Verdana" font-size="12">email</text>
	<text x="14" y="262.8" fill="#000000" font-family="Verdana" font-size="12">password</text>
	<text x="14" y="279.8" fill="#000000" font-family="Verdana" font-size="12">address</text>
	<text x="14" y="296.8" fill="#000000" font-family="Verdana" font-size="12">postal_code</text>
	<text x="14" y="313.8" fill="#000000" font-family="Verdana" font-size="12">city</text>
	<text x="14" y="330.8" fill="#000000" font-family="Verdana" font-size="12">country</text>
	<text x="14" y="347.8" fill="#000000" font-family="Verdana" font-size="12">is_admin</text>
	<text x="14" y="364.8" fill="#000000" font-family="Verdana" font-size="12">created_at</text>
	<text x="14" y="381.8" fill="#000000" font-family="Verdana" font-size="12">updated_at</text>
</g>

<!-- Entity product_details -->
<g id="entity-product_details">
	<g id="frame-product_details">
		<rect x="369" y="9" width="116" height="25" fill="#fdae61" stroke="#fdae61" stroke-width="0"/>
		<rect x="369" y="34.0" width="116" height="127" fill="#fee08b" stroke="#fee08b" stroke-width="0"/>
		<rect x="369" y="9" width="116" height="152" fill="none" stroke="#f46d43" stroke-width="2"/>
		<line x1="369" y1="34" x2="485" y2="34" stroke="#f46d43" stroke-width="1"/>
	</g>
	<text x="380" y="26.7" fill="#000000" font-family="Verdana" font-size="12">product_details</text>
	<text x="374" y="51.7" fill="#000000" font-family="Verdana" font-size="12">product_detail_id</text>
	<line x1="374" y1="54" x2="480" y2="54" stroke="#000000" stroke-width="1"/>
	<text x="374" y="68.7" fill="#000000" font-family="Verdana" font-size="12">color</text>
	<text x="374" y="85.8" fill="#000000" font-family="Verdana" font-size="12">size</text>
	<text x="374" y="102.8" fill="#000000" font-family="Verdana" font-size="12">quantity</text>
	<text x="374" y="119.8" fill="#000000" font-family="Verdana" font-size="12">image_url</text>
	<text x="374" y="136.8" fill="#000000" font-family="Verdana" font-size="12">created_at</text>
	<text x="374" y="153.8" fill="#000000" font-family="Verdana" font-size="12">updated_at</text>
</g>

<!-- Entity cart -->
<g id="entity-cart">
	<g id="frame-cart">
		<rect x="132" y="43" width="80" height="25" fill="#fdae61" stroke="#fdae61" stroke-width="0"/>
		<rect x="132" y="68.0" width="80" height="59" fill="#fee08b" stroke="#fee08b" stroke-width="0"/>
		<rect x="132" y="43" width="80" height="84" fill="none" stroke="#f46d43" stroke-width="2"/>
		<line x1="132" y1="68" x2="212" y2="68" stroke="#f46d43" stroke-width="1"/>
	</g>
	<text x="160" y="60.7" fill="#000000" font-family="Verdana" font-size="12">cart</text>
	<text x="137" y="85.8" fill="#000000" font-family="Verdana" font-size="12">cart_id</text>
	<line x1="137" y1="88" x2="180" y2="88" stroke="#000000" stroke-width="1"/>
	<text x="137" y="102.8" fill="#000000" font-family="Verdana" font-size="12">created_at</text>
	<text x="137" y="119.8" fill="#000000" font-family="Verdana" font-size="12">updated_at</text>
</g>

<!-- Entity products -->
<g id="entity-products">
	<g id="frame-products">
		<rect x="264" y="194" width="80" height="25" fill="#fdae61" stroke="#fdae61" stroke-width="0"/>
		<rect x="264" y="219.0" width="80" height="111" fill="#fee08b" stroke="#fee08b" stroke-width="0"/>
		<rect x="264" y="194" width="80" height="136" fill="none" stroke="#f46d43" stroke-width="2"/>
		<line x1="264" y1="219" x2="344" y2="219" stroke="#f46d43" stroke-width="1"/>
	</g>
	<text x="277" y="211.7" fill="#000000" font-family="Verdana" font-size="12">products</text>
	<text x="269" y="236.7" fill="#000000" font-family="Verdana" font-size="12">product_id</text>
	<line x1="269" y1="239" x2="334" y2="239" stroke="#000000" stroke-width="1"/>
	<text x="269" y="253.7" fill="#000000" font-family="Verdana" font-size="12">name</text>
	<text x="269" y="270.8" fill="#000000" font-family="Verdana" font-size="12">description</text>
	<text x="269" y="287.8" fill="#000000" font-family="Verdana" font-size="12">price</text>
	<text x="269" y="304.8" fill="#000000" font-family="Verdana" font-size="12">created_at</text>
	<text x="269" y="321.8" fill="#000000" font-family="Verdana" font-size="12">updated_at</text>
</g>

<!-- Entity orders -->
<g id="entity-orders">
	<g id="frame-orders">
		<rect x="111" y="414" width="122" height="25" fill="#fdae61" stroke="#fdae61" stroke-width="0"/>
		<rect x="111" y="439.0" width="122" height="127" fill="#fee08b" stroke="#fee08b" stroke-width="0"/>
		<rect x="111" y="414" width="122" height="152" fill="none" stroke="#f46d43" stroke-width="2"/>
		<line x1="111" y1="439" x2="233" y2="439" stroke="#f46d43" stroke-width="1"/>
	</g>
	<text x="152" y="431.7" fill="#000000" font-family="Verdana" font-size="12">orders</text>
	<text x="116" y="456.7" fill="#000000" font-family="Verdana" font-size="12">order_id</text>
	<line x1="116" y1="459" x2="168" y2="459" stroke="#000000" stroke-width="1"/>
	<text x="116" y="473.7" fill="#000000" font-family="Verdana" font-size="12">status</text>
	<text x="116" y="490.8" fill="#000000" font-family="Verdana" font-size="12">shipping_date</text>
	<text x="116" y="507.8" fill="#000000" font-family="Verdana" font-size="12">prepare_date</text>
	<text x="116" y="524.8" fill="#000000" font-family="Verdana" font-size="12">shipping_estimate</text>
	<text x="116" y="541.8" fill="#000000" font-family="Verdana" font-size="12">created_at</text>
	<text x="116" y="558.8" fill="#000000" font-family="Verdana" font-size="12">updated_at</text>
</g>

<!-- Entity categories -->
<g id="entity-categories">
	<g id="frame-categories">
		<rect x="386" y="431" width="82" height="25" fill="#fdae61" stroke="#fdae61" stroke-width="0"/>
		<rect x="386" y="456.0" width="82" height="93" fill="#fee08b" stroke="#fee08b" stroke-width="0"/>
		<rect x="386" y="431" width="82" height="118" fill="none" stroke="#f46d43" stroke-width="2"/>
		<line x1="386" y1="456" x2="468" y2="456" stroke="#f46d43" stroke-width="1"/>
	</g>
	<text x="395" y="448.7" fill="#000000" font-family="Verdana" font-size="12">categories</text>
	<text x="391" y="473.7" fill="#000000" font-family="Verdana" font-size="12">category_id</text>
	<line x1="391" y1="476" x2="463" y2="476" stroke="#000000" stroke-width="1"/>
	<text x="391" y="490.8" fill="#000000" font-family="Verdana" font-size="12">name</text>
	<text x="391" y="507.8" fill="#000000" font-family="Verdana" font-size="12">color</text>
	<text x="391" y="524.8" fill="#000000" font-family="Verdana" font-size="12">created_at</text>
	<text x="391" y="541.8" fill="#000000" font-family="Verdana" font-size="12">updated_at</text>
</g>
</svg>