<mxfile>
    <diagram id="5EJA9_6-nlzx3DuWT1oe" name="Accueil">
        <mxGraphModel dx="1620" dy="913" grid="1" gridSize="10" guides="1" tooltips="1" connect="1" arrows="1" fold="1" page="1" pageScale="1" pageWidth="827" pageHeight="1169" math="0" shadow="0">
            <root>
                <mxCell id="0"/>
                <mxCell id="1" parent="0"/>
                <mxCell id="2" value="" style="rounded=0;whiteSpace=wrap;html=1;" parent="1" vertex="1">
                    <mxGeometry x="250" y="100" width="980" height="670" as="geometry"/>
                </mxCell>
                <mxCell id="3" value="" style="rounded=0;whiteSpace=wrap;html=1;" parent="1" vertex="1">
                    <mxGeometry x="250" y="100" width="980" height="60" as="geometry"/>
                </mxCell>
                <mxCell id="4" value="" style="rounded=0;whiteSpace=wrap;html=1;" parent="1" vertex="1">
                    <mxGeometry x="250" y="100" width="120" height="670" as="geometry"/>
                </mxCell>
                <mxCell id="6" value="" style="rounded=1;whiteSpace=wrap;html=1;" parent="1" vertex="1">
                    <mxGeometry x="265" y="110" width="90" height="40" as="geometry"/>
                </mxCell>
                <mxCell id="5" value="LOGO" style="text;html=1;strokeColor=none;fillColor=none;align=center;verticalAlign=middle;whiteSpace=wrap;rounded=0;" parent="1" vertex="1">
                    <mxGeometry x="290" y="120" width="40" height="20" as="geometry"/>
                </mxCell>
                <mxCell id="7" value="bienvenue ..." style="text;html=1;strokeColor=none;fillColor=none;align=center;verticalAlign=middle;whiteSpace=wrap;rounded=0;" parent="1" vertex="1">
                    <mxGeometry x="1050" y="120" width="90" height="20" as="geometry"/>
                </mxCell>
                <mxCell id="8" value="déco" style="rounded=1;whiteSpace=wrap;html=1;" parent="1" vertex="1">
                    <mxGeometry x="1150" y="120" width="70" height="20" as="geometry"/>
                </mxCell>
                <mxCell id="9" value="recherche" style="rounded=1;whiteSpace=wrap;html=1;" parent="1" vertex="1">
                    <mxGeometry x="420" y="115" width="250" height="30" as="geometry"/>
                </mxCell>
                <mxCell id="10" value="Produits" style="text;html=1;strokeColor=none;fillColor=none;align=center;verticalAlign=middle;whiteSpace=wrap;rounded=0;" parent="1" vertex="1">
                    <mxGeometry x="270" y="290" width="90" height="20" as="geometry"/>
                </mxCell>
                <mxCell id="11" value="Categories" style="text;html=1;strokeColor=none;fillColor=none;align=center;verticalAlign=middle;whiteSpace=wrap;rounded=0;" parent="1" vertex="1">
                    <mxGeometry x="270" y="320" width="90" height="20" as="geometry"/>
                </mxCell>
                <mxCell id="12" value="Utilisateurs" style="text;html=1;strokeColor=none;fillColor=none;align=center;verticalAlign=middle;whiteSpace=wrap;rounded=0;" parent="1" vertex="1">
                    <mxGeometry x="270" y="350" width="90" height="20" as="geometry"/>
                </mxCell>
                <mxCell id="13" value="Commandes" style="text;html=1;strokeColor=none;fillColor=none;align=center;verticalAlign=middle;whiteSpace=wrap;rounded=0;" parent="1" vertex="1">
                    <mxGeometry x="270" y="390" width="90" height="20" as="geometry"/>
                </mxCell>
            </root>
        </mxGraphModel>
    </diagram>
    <diagram name="Produits--list" id="OrrjnfyBCcF-xj6_jY3p">
        <mxGraphModel dx="1620" dy="913" grid="1" gridSize="10" guides="1" tooltips="1" connect="1" arrows="1" fold="1" page="1" pageScale="1" pageWidth="827" pageHeight="1169" math="0" shadow="0">
            <root>
                <mxCell id="axPLnJmki6rQ6h-yIW8--0"/>
                <mxCell id="axPLnJmki6rQ6h-yIW8--1" parent="axPLnJmki6rQ6h-yIW8--0"/>
                <mxCell id="axPLnJmki6rQ6h-yIW8--2" value="" style="rounded=0;whiteSpace=wrap;html=1;" parent="axPLnJmki6rQ6h-yIW8--1" vertex="1">
                    <mxGeometry x="250" y="100" width="980" height="670" as="geometry"/>
                </mxCell>
                <mxCell id="axPLnJmki6rQ6h-yIW8--3" value="" style="rounded=0;whiteSpace=wrap;html=1;" parent="axPLnJmki6rQ6h-yIW8--1" vertex="1">
                    <mxGeometry x="250" y="100" width="980" height="60" as="geometry"/>
                </mxCell>
                <mxCell id="axPLnJmki6rQ6h-yIW8--4" value="" style="rounded=0;whiteSpace=wrap;html=1;" parent="axPLnJmki6rQ6h-yIW8--1" vertex="1">
                    <mxGeometry x="250" y="100" width="120" height="670" as="geometry"/>
                </mxCell>
                <mxCell id="axPLnJmki6rQ6h-yIW8--5" value="" style="rounded=1;whiteSpace=wrap;html=1;" parent="axPLnJmki6rQ6h-yIW8--1" vertex="1">
                    <mxGeometry x="265" y="110" width="90" height="40" as="geometry"/>
                </mxCell>
                <mxCell id="axPLnJmki6rQ6h-yIW8--6" value="LOGO" style="text;html=1;strokeColor=none;fillColor=none;align=center;verticalAlign=middle;whiteSpace=wrap;rounded=0;" parent="axPLnJmki6rQ6h-yIW8--1" vertex="1">
                    <mxGeometry x="290" y="120" width="40" height="20" as="geometry"/>
                </mxCell>
                <mxCell id="axPLnJmki6rQ6h-yIW8--7" value="bienvenue ..." style="text;html=1;strokeColor=none;fillColor=none;align=center;verticalAlign=middle;whiteSpace=wrap;rounded=0;" parent="axPLnJmki6rQ6h-yIW8--1" vertex="1">
                    <mxGeometry x="1050" y="120" width="90" height="20" as="geometry"/>
                </mxCell>
                <mxCell id="axPLnJmki6rQ6h-yIW8--8" value="déco" style="rounded=1;whiteSpace=wrap;html=1;" parent="axPLnJmki6rQ6h-yIW8--1" vertex="1">
                    <mxGeometry x="1150" y="120" width="70" height="20" as="geometry"/>
                </mxCell>
                <mxCell id="axPLnJmki6rQ6h-yIW8--9" value="recherche" style="rounded=1;whiteSpace=wrap;html=1;" parent="axPLnJmki6rQ6h-yIW8--1" vertex="1">
                    <mxGeometry x="420" y="115" width="250" height="30" as="geometry"/>
                </mxCell>
                <mxCell id="axPLnJmki6rQ6h-yIW8--10" value="Produits" style="text;html=1;strokeColor=none;fillColor=none;align=center;verticalAlign=middle;whiteSpace=wrap;rounded=0;" parent="axPLnJmki6rQ6h-yIW8--1" vertex="1">
                    <mxGeometry x="270" y="290" width="90" height="20" as="geometry"/>
                </mxCell>
                <mxCell id="axPLnJmki6rQ6h-yIW8--11" value="Categories" style="text;html=1;strokeColor=none;fillColor=none;align=center;verticalAlign=middle;whiteSpace=wrap;rounded=0;" parent="axPLnJmki6rQ6h-yIW8--1" vertex="1">
                    <mxGeometry x="270" y="320" width="90" height="20" as="geometry"/>
                </mxCell>
                <mxCell id="axPLnJmki6rQ6h-yIW8--12" value="Utilisateurs" style="text;html=1;strokeColor=none;fillColor=none;align=center;verticalAlign=middle;whiteSpace=wrap;rounded=0;" parent="axPLnJmki6rQ6h-yIW8--1" vertex="1">
                    <mxGeometry x="270" y="350" width="90" height="20" as="geometry"/>
                </mxCell>
                <mxCell id="axPLnJmki6rQ6h-yIW8--13" value="Commandes" style="text;html=1;strokeColor=none;fillColor=none;align=center;verticalAlign=middle;whiteSpace=wrap;rounded=0;" parent="axPLnJmki6rQ6h-yIW8--1" vertex="1">
                    <mxGeometry x="270" y="390" width="90" height="20" as="geometry"/>
                </mxCell>
                <mxCell id="Kr2Dcq1we33S-_Z2gDe--0" value="PRODUITS" style="text;html=1;strokeColor=none;fillColor=none;align=center;verticalAlign=middle;whiteSpace=wrap;rounded=0;" parent="axPLnJmki6rQ6h-yIW8--1" vertex="1">
                    <mxGeometry x="520" y="200" width="550" height="60" as="geometry"/>
                </mxCell>
                <mxCell id="Kr2Dcq1we33S-_Z2gDe--1" value="" style="rounded=0;whiteSpace=wrap;html=1;" parent="axPLnJmki6rQ6h-yIW8--1" vertex="1">
                    <mxGeometry x="390" y="290" width="820" height="210" as="geometry"/>
                </mxCell>
                <mxCell id="Kr2Dcq1we33S-_Z2gDe--2" value="" style="endArrow=none;html=1;entryX=1;entryY=0.16;entryDx=0;entryDy=0;entryPerimeter=0;exitX=0;exitY=0.16;exitDx=0;exitDy=0;exitPerimeter=0;" parent="axPLnJmki6rQ6h-yIW8--1" source="Kr2Dcq1we33S-_Z2gDe--1" target="Kr2Dcq1we33S-_Z2gDe--1" edge="1">
                    <mxGeometry width="50" height="50" relative="1" as="geometry">
                        <mxPoint x="790" y="490" as="sourcePoint"/>
                        <mxPoint x="840" y="440" as="targetPoint"/>
                    </mxGeometry>
                </mxCell>
                <mxCell id="Kr2Dcq1we33S-_Z2gDe--3" value="" style="endArrow=none;html=1;entryX=1;entryY=0.16;entryDx=0;entryDy=0;entryPerimeter=0;exitX=0;exitY=0.16;exitDx=0;exitDy=0;exitPerimeter=0;" parent="axPLnJmki6rQ6h-yIW8--1" edge="1">
                    <mxGeometry width="50" height="50" relative="1" as="geometry">
                        <mxPoint x="390" y="359.4999999999999" as="sourcePoint"/>
                        <mxPoint x="1210" y="359.4999999999999" as="targetPoint"/>
                    </mxGeometry>
                </mxCell>
                <mxCell id="Kr2Dcq1we33S-_Z2gDe--4" value="" style="endArrow=none;html=1;entryX=1;entryY=0.16;entryDx=0;entryDy=0;entryPerimeter=0;exitX=0;exitY=0.16;exitDx=0;exitDy=0;exitPerimeter=0;" parent="axPLnJmki6rQ6h-yIW8--1" edge="1">
                    <mxGeometry width="50" height="50" relative="1" as="geometry">
                        <mxPoint x="390" y="399.5" as="sourcePoint"/>
                        <mxPoint x="1210" y="399.5" as="targetPoint"/>
                    </mxGeometry>
                </mxCell>
                <mxCell id="Kr2Dcq1we33S-_Z2gDe--5" value="" style="endArrow=none;html=1;entryX=1;entryY=0.16;entryDx=0;entryDy=0;entryPerimeter=0;exitX=0;exitY=0.16;exitDx=0;exitDy=0;exitPerimeter=0;" parent="axPLnJmki6rQ6h-yIW8--1" edge="1">
                    <mxGeometry width="50" height="50" relative="1" as="geometry">
                        <mxPoint x="390" y="450" as="sourcePoint"/>
                        <mxPoint x="1210" y="450" as="targetPoint"/>
                    </mxGeometry>
                </mxCell>
                <mxCell id="Kr2Dcq1we33S-_Z2gDe--6" value="" style="endArrow=none;html=1;entryX=0.108;entryY=0.001;entryDx=0;entryDy=0;entryPerimeter=0;exitX=0.112;exitY=1.001;exitDx=0;exitDy=0;exitPerimeter=0;" parent="axPLnJmki6rQ6h-yIW8--1" source="Kr2Dcq1we33S-_Z2gDe--1" target="Kr2Dcq1we33S-_Z2gDe--1" edge="1">
                    <mxGeometry width="50" height="50" relative="1" as="geometry">
                        <mxPoint x="790" y="490" as="sourcePoint"/>
                        <mxPoint x="840" y="440" as="targetPoint"/>
                    </mxGeometry>
                </mxCell>
                <mxCell id="Kr2Dcq1we33S-_Z2gDe--7" value="" style="endArrow=none;html=1;entryX=0.108;entryY=0.001;entryDx=0;entryDy=0;entryPerimeter=0;exitX=0.112;exitY=1.001;exitDx=0;exitDy=0;exitPerimeter=0;" parent="axPLnJmki6rQ6h-yIW8--1" edge="1">
                    <mxGeometry width="50" height="50" relative="1" as="geometry">
                        <mxPoint x="573.2800000000002" y="500.00000000000006" as="sourcePoint"/>
                        <mxPoint x="570" y="290.00000000000006" as="targetPoint"/>
                    </mxGeometry>
                </mxCell>
                <mxCell id="Kr2Dcq1we33S-_Z2gDe--8" value="" style="endArrow=none;html=1;entryX=0.108;entryY=0.001;entryDx=0;entryDy=0;entryPerimeter=0;exitX=0.112;exitY=1.001;exitDx=0;exitDy=0;exitPerimeter=0;" parent="axPLnJmki6rQ6h-yIW8--1" edge="1">
                    <mxGeometry width="50" height="50" relative="1" as="geometry">
                        <mxPoint x="673.2800000000002" y="505" as="sourcePoint"/>
                        <mxPoint x="670" y="295" as="targetPoint"/>
                    </mxGeometry>
                </mxCell>
                <mxCell id="Kr2Dcq1we33S-_Z2gDe--9" value="" style="endArrow=none;html=1;entryX=0.108;entryY=0.001;entryDx=0;entryDy=0;entryPerimeter=0;exitX=0.112;exitY=1.001;exitDx=0;exitDy=0;exitPerimeter=0;" parent="axPLnJmki6rQ6h-yIW8--1" edge="1">
                    <mxGeometry width="50" height="50" relative="1" as="geometry">
                        <mxPoint x="773.2800000000002" y="500" as="sourcePoint"/>
                        <mxPoint x="770" y="290" as="targetPoint"/>
                    </mxGeometry>
                </mxCell>
                <mxCell id="Kr2Dcq1we33S-_Z2gDe--10" value="" style="endArrow=none;html=1;entryX=0.108;entryY=0.001;entryDx=0;entryDy=0;entryPerimeter=0;exitX=0.112;exitY=1.001;exitDx=0;exitDy=0;exitPerimeter=0;" parent="axPLnJmki6rQ6h-yIW8--1" edge="1">
                    <mxGeometry width="50" height="50" relative="1" as="geometry">
                        <mxPoint x="863.2800000000002" y="500" as="sourcePoint"/>
                        <mxPoint x="860" y="290" as="targetPoint"/>
                    </mxGeometry>
                </mxCell>
                <mxCell id="Kr2Dcq1we33S-_Z2gDe--11" value="" style="endArrow=none;html=1;entryX=0.108;entryY=0.001;entryDx=0;entryDy=0;entryPerimeter=0;exitX=0.112;exitY=1.001;exitDx=0;exitDy=0;exitPerimeter=0;" parent="axPLnJmki6rQ6h-yIW8--1" edge="1">
                    <mxGeometry width="50" height="50" relative="1" as="geometry">
                        <mxPoint x="953.2800000000002" y="500" as="sourcePoint"/>
                        <mxPoint x="950" y="290" as="targetPoint"/>
                    </mxGeometry>
                </mxCell>
                <mxCell id="Kr2Dcq1we33S-_Z2gDe--12" value="" style="endArrow=none;html=1;entryX=0.108;entryY=0.001;entryDx=0;entryDy=0;entryPerimeter=0;exitX=0.112;exitY=1.001;exitDx=0;exitDy=0;exitPerimeter=0;" parent="axPLnJmki6rQ6h-yIW8--1" edge="1">
                    <mxGeometry width="50" height="50" relative="1" as="geometry">
                        <mxPoint x="1053.2800000000002" y="505" as="sourcePoint"/>
                        <mxPoint x="1050" y="295" as="targetPoint"/>
                    </mxGeometry>
                </mxCell>
                <mxCell id="Kr2Dcq1we33S-_Z2gDe--13" value="" style="endArrow=none;html=1;entryX=0.108;entryY=0.001;entryDx=0;entryDy=0;entryPerimeter=0;exitX=0.112;exitY=1.001;exitDx=0;exitDy=0;exitPerimeter=0;" parent="axPLnJmki6rQ6h-yIW8--1" edge="1">
                    <mxGeometry width="50" height="50" relative="1" as="geometry">
                        <mxPoint x="1143.2800000000002" y="505" as="sourcePoint"/>
                        <mxPoint x="1140" y="295" as="targetPoint"/>
                    </mxGeometry>
                </mxCell>
                <mxCell id="Kr2Dcq1we33S-_Z2gDe--15" value="id" style="text;html=1;align=center;verticalAlign=middle;resizable=0;points=[];autosize=1;" parent="axPLnJmki6rQ6h-yIW8--1" vertex="1">
                    <mxGeometry x="430" y="300" width="20" height="20" as="geometry"/>
                </mxCell>
                <mxCell id="Kr2Dcq1we33S-_Z2gDe--16" value="name" style="text;html=1;align=center;verticalAlign=middle;resizable=0;points=[];autosize=1;" parent="axPLnJmki6rQ6h-yIW8--1" vertex="1">
                    <mxGeometry x="500" y="300" width="50" height="20" as="geometry"/>
                </mxCell>
                <mxCell id="Kr2Dcq1we33S-_Z2gDe--17" value="" style="endArrow=none;html=1;entryX=0.25;entryY=1;entryDx=0;entryDy=0;exitX=0.75;exitY=1;exitDx=0;exitDy=0;" parent="axPLnJmki6rQ6h-yIW8--1" source="axPLnJmki6rQ6h-yIW8--10" target="axPLnJmki6rQ6h-yIW8--10" edge="1">
                    <mxGeometry width="50" height="50" relative="1" as="geometry">
                        <mxPoint x="790" y="490" as="sourcePoint"/>
                        <mxPoint x="840" y="440" as="targetPoint"/>
                    </mxGeometry>
                </mxCell>
                <mxCell id="bDg-UELELaokfsnavm1q-0" value="CREER PRODUIT" style="rounded=1;whiteSpace=wrap;html=1;" parent="axPLnJmki6rQ6h-yIW8--1" vertex="1">
                    <mxGeometry x="1070" y="240" width="130" height="30" as="geometry"/>
                </mxCell>
            </root>
        </mxGraphModel>
    </diagram>
    <diagram name="Produits--create/update" id="cX13EbXjbaaJJRG0XCRB">
        <mxGraphModel dx="1620" dy="913" grid="1" gridSize="10" guides="1" tooltips="1" connect="1" arrows="1" fold="1" page="1" pageScale="1" pageWidth="827" pageHeight="1169" math="0" shadow="0">
            <root>
                <mxCell id="CIzjRIoNinnq2eMmjXsd-0"/>
                <mxCell id="CIzjRIoNinnq2eMmjXsd-1" parent="CIzjRIoNinnq2eMmjXsd-0"/>
                <mxCell id="CIzjRIoNinnq2eMmjXsd-2" value="" style="rounded=0;whiteSpace=wrap;html=1;" parent="CIzjRIoNinnq2eMmjXsd-1" vertex="1">
                    <mxGeometry x="250" y="100" width="980" height="670" as="geometry"/>
                </mxCell>
                <mxCell id="CIzjRIoNinnq2eMmjXsd-3" value="" style="rounded=0;whiteSpace=wrap;html=1;" parent="CIzjRIoNinnq2eMmjXsd-1" vertex="1">
                    <mxGeometry x="250" y="100" width="980" height="60" as="geometry"/>
                </mxCell>
                <mxCell id="CIzjRIoNinnq2eMmjXsd-4" value="" style="rounded=0;whiteSpace=wrap;html=1;" parent="CIzjRIoNinnq2eMmjXsd-1" vertex="1">
                    <mxGeometry x="250" y="100" width="120" height="670" as="geometry"/>
                </mxCell>
                <mxCell id="CIzjRIoNinnq2eMmjXsd-5" value="" style="rounded=1;whiteSpace=wrap;html=1;" parent="CIzjRIoNinnq2eMmjXsd-1" vertex="1">
                    <mxGeometry x="265" y="110" width="90" height="40" as="geometry"/>
                </mxCell>
                <mxCell id="CIzjRIoNinnq2eMmjXsd-6" value="LOGO" style="text;html=1;strokeColor=none;fillColor=none;align=center;verticalAlign=middle;whiteSpace=wrap;rounded=0;" parent="CIzjRIoNinnq2eMmjXsd-1" vertex="1">
                    <mxGeometry x="290" y="120" width="40" height="20" as="geometry"/>
                </mxCell>
                <mxCell id="CIzjRIoNinnq2eMmjXsd-7" value="bienvenue ..." style="text;html=1;strokeColor=none;fillColor=none;align=center;verticalAlign=middle;whiteSpace=wrap;rounded=0;" parent="CIzjRIoNinnq2eMmjXsd-1" vertex="1">
                    <mxGeometry x="1050" y="120" width="90" height="20" as="geometry"/>
                </mxCell>
                <mxCell id="CIzjRIoNinnq2eMmjXsd-8" value="déco" style="rounded=1;whiteSpace=wrap;html=1;" parent="CIzjRIoNinnq2eMmjXsd-1" vertex="1">
                    <mxGeometry x="1150" y="120" width="70" height="20" as="geometry"/>
                </mxCell>
                <mxCell id="CIzjRIoNinnq2eMmjXsd-9" value="recherche" style="rounded=1;whiteSpace=wrap;html=1;" parent="CIzjRIoNinnq2eMmjXsd-1" vertex="1">
                    <mxGeometry x="420" y="115" width="250" height="30" as="geometry"/>
                </mxCell>
                <mxCell id="CIzjRIoNinnq2eMmjXsd-10" value="Produits" style="text;html=1;strokeColor=none;fillColor=none;align=center;verticalAlign=middle;whiteSpace=wrap;rounded=0;" parent="CIzjRIoNinnq2eMmjXsd-1" vertex="1">
                    <mxGeometry x="270" y="290" width="90" height="20" as="geometry"/>
                </mxCell>
                <mxCell id="CIzjRIoNinnq2eMmjXsd-11" value="Categories" style="text;html=1;strokeColor=none;fillColor=none;align=center;verticalAlign=middle;whiteSpace=wrap;rounded=0;" parent="CIzjRIoNinnq2eMmjXsd-1" vertex="1">
                    <mxGeometry x="270" y="320" width="90" height="20" as="geometry"/>
                </mxCell>
                <mxCell id="CIzjRIoNinnq2eMmjXsd-12" value="Utilisateurs" style="text;html=1;strokeColor=none;fillColor=none;align=center;verticalAlign=middle;whiteSpace=wrap;rounded=0;" parent="CIzjRIoNinnq2eMmjXsd-1" vertex="1">
                    <mxGeometry x="270" y="350" width="90" height="20" as="geometry"/>
                </mxCell>
                <mxCell id="CIzjRIoNinnq2eMmjXsd-13" value="Commandes" style="text;html=1;strokeColor=none;fillColor=none;align=center;verticalAlign=middle;whiteSpace=wrap;rounded=0;" parent="CIzjRIoNinnq2eMmjXsd-1" vertex="1">
                    <mxGeometry x="270" y="390" width="90" height="20" as="geometry"/>
                </mxCell>
                <mxCell id="CIzjRIoNinnq2eMmjXsd-14" value="" style="endArrow=none;html=1;entryX=0.25;entryY=1;entryDx=0;entryDy=0;exitX=0.75;exitY=1;exitDx=0;exitDy=0;" parent="CIzjRIoNinnq2eMmjXsd-1" source="CIzjRIoNinnq2eMmjXsd-10" target="CIzjRIoNinnq2eMmjXsd-10" edge="1">
                    <mxGeometry width="50" height="50" relative="1" as="geometry">
                        <mxPoint x="790" y="490" as="sourcePoint"/>
                        <mxPoint x="840" y="440" as="targetPoint"/>
                    </mxGeometry>
                </mxCell>
                <mxCell id="CIzjRIoNinnq2eMmjXsd-15" value="" style="rounded=1;whiteSpace=wrap;html=1;" parent="CIzjRIoNinnq2eMmjXsd-1" vertex="1">
                    <mxGeometry x="520" y="300" width="190" height="20" as="geometry"/>
                </mxCell>
                <mxCell id="CIzjRIoNinnq2eMmjXsd-16" value="" style="rounded=1;whiteSpace=wrap;html=1;" parent="CIzjRIoNinnq2eMmjXsd-1" vertex="1">
                    <mxGeometry x="840" y="300" width="190" height="20" as="geometry"/>
                </mxCell>
                <mxCell id="CIzjRIoNinnq2eMmjXsd-18" value="" style="rounded=1;whiteSpace=wrap;html=1;" parent="CIzjRIoNinnq2eMmjXsd-1" vertex="1">
                    <mxGeometry x="840" y="340" width="190" height="20" as="geometry"/>
                </mxCell>
                <mxCell id="CIzjRIoNinnq2eMmjXsd-19" value="" style="rounded=1;whiteSpace=wrap;html=1;" parent="CIzjRIoNinnq2eMmjXsd-1" vertex="1">
                    <mxGeometry x="520" y="340" width="190" height="20" as="geometry"/>
                </mxCell>
                <mxCell id="CIzjRIoNinnq2eMmjXsd-20" value="" style="rounded=1;whiteSpace=wrap;html=1;" parent="CIzjRIoNinnq2eMmjXsd-1" vertex="1">
                    <mxGeometry x="840" y="380" width="190" height="20" as="geometry"/>
                </mxCell>
                <mxCell id="CIzjRIoNinnq2eMmjXsd-21" value="" style="rounded=1;whiteSpace=wrap;html=1;" parent="CIzjRIoNinnq2eMmjXsd-1" vertex="1">
                    <mxGeometry x="520" y="380" width="190" height="20" as="geometry"/>
                </mxCell>
                <mxCell id="CIzjRIoNinnq2eMmjXsd-22" value="" style="rounded=1;whiteSpace=wrap;html=1;" parent="CIzjRIoNinnq2eMmjXsd-1" vertex="1">
                    <mxGeometry x="840" y="430" width="190" height="20" as="geometry"/>
                </mxCell>
                <mxCell id="CIzjRIoNinnq2eMmjXsd-23" value="PHOTO PRODUIT" style="rounded=1;whiteSpace=wrap;html=1;" parent="CIzjRIoNinnq2eMmjXsd-1" vertex="1">
                    <mxGeometry x="520" y="430" width="190" height="190" as="geometry"/>
                </mxCell>
                <mxCell id="CIzjRIoNinnq2eMmjXsd-24" value="AJOUTER" style="rounded=1;whiteSpace=wrap;html=1;" parent="CIzjRIoNinnq2eMmjXsd-1" vertex="1">
                    <mxGeometry x="910" y="560" width="120" height="60" as="geometry"/>
                </mxCell>
            </root>
        </mxGraphModel>
    </diagram>
</mxfile>